intro
…
Filtrar dados por fatores

RS <- survey |> 
  filter(state == "RS")

RS

# A tibble: 450 × 6
    year state residue   inc inc_class species
   <dbl> <chr> <chr>   <dbl> <chr>     <chr>  
 1  2011 RS    soybean     1 low       Fgra   
 2  2011 RS    soybean     1 low       Fgra   
 3  2011 RS    soybean     1 low       Fgra   
 4  2011 RS    soybean     1 low       Fgra   
 5  2011 RS    soybean     1 low       Fgra   
 6  2011 RS    soybean     1 low       Fgra   
 7  2011 RS    corn        1 low       Fgra   
 8  2010 RS    soybean     2 low       Fspp   
 9  2010 RS    corn        2 low       Fgra   
10  2011 RS    soybean     2 low       Fgra   
# ℹ 440 more rows

PR <- survey |> 
  filter(state == "PR")

PR

# A tibble: 216 × 6
    year state residue   inc inc_class species
   <dbl> <chr> <chr>   <dbl> <chr>     <chr>  
 1  2009 PR    <NA>       NA <NA>      Fgra   
 2  2009 PR    <NA>       NA <NA>      Fgra   
 3  2009 PR    <NA>       NA <NA>      Fgra   
 4  2009 PR    <NA>       NA <NA>      Fgra   
 5  2009 PR    <NA>       NA <NA>      Fgra   
 6  2009 PR    <NA>       NA <NA>      Fgra   
 7  2009 PR    <NA>       NA <NA>      Fgra   
 8  2009 PR    <NA>       NA <NA>      Fgra   
 9  2009 PR    <NA>       NA <NA>      Fgra   
10  2009 PR    <NA>       NA <NA>      Fgra   
# ℹ 206 more rows

Combinando os conjuntos RS e PR

combinado <- rbind(RS, PR)

Selecionar colunas

survey_b <- survey |> 
  select(year, state, species)
  
survey_b

# A tibble: 666 × 3
    year state species
   <dbl> <chr> <chr>  
 1  2011 RS    Fgra   
 2  2011 RS    Fgra   
 3  2011 RS    Fgra   
 4  2011 RS    Fgra   
 5  2011 RS    Fgra   
 6  2011 RS    Fgra   
 7  2011 RS    Fgra   
 8  2010 RS    Fspp   
 9  2010 RS    Fgra   
10  2011 RS    Fgra   
# ℹ 656 more rows

Selecionar colunas e fatores de forma conjunta

# usando select e filter juntos

survey_b <- survey |> 
  select(year, state, species) |> 
  filter(year == "2009")

survey_b

# A tibble: 265 × 3
    year state species
   <dbl> <chr> <chr>  
 1  2009 RS    Fgra   
 2  2009 RS    Fgra   
 3  2009 RS    Fgra   
 4  2009 RS    Fgra   
 5  2009 RS    Fgra   
 6  2009 RS    Fgra   
 7  2009 RS    Fgra   
 8  2009 RS    Fgra   
 9  2009 RS    Fgra   
10  2009 RS    Fgra   
# ℹ 255 more rows
…
